%YAML 1.1
%TAG !u! tag:unity3d.com,2011:
--- !u!1 &3130375262995734323
GameObject:
  m_ObjectHideFlags: 0
  m_CorrespondingSourceObject: {fileID: 0}
  m_PrefabInstance: {fileID: 0}
  m_PrefabAsset: {fileID: 0}
  serializedVersion: 6
  m_Component:
  - component: {fileID: 4766620483011762029}
  - component: {fileID: 4344095201541061996}
  m_Layer: 31
  m_Name: Fences
  m_TagString: Untagged
  m_Icon: {fileID: 0}
  m_NavMeshLayer: 0
  m_StaticEditorFlags: 0
  m_IsActive: 1
--- !u!4 &4766620483011762029
Transform:
  m_ObjectHideFlags: 0
  m_CorrespondingSourceObject: {fileID: 0}
  m_PrefabInstance: {fileID: 0}
  m_PrefabAsset: {fileID: 0}
  m_GameObject: {fileID: 3130375262995734323}
  m_LocalRotation: {x: 0, y: 0, z: 0, w: 1}
  m_LocalPosition: {x: 0, y: 0, z: 0}
  m_LocalScale: {x: 1, y: 1, z: 1}
  m_Children:
  - {fileID: 7395369864353422864}
  m_Father: {fileID: 0}
  m_RootOrder: 0
  m_LocalEulerAnglesHint: {x: 0, y: 0, z: 0}
--- !u!156049354 &4344095201541061996
Grid:
  m_ObjectHideFlags: 0
  m_CorrespondingSourceObject: {fileID: 0}
  m_PrefabInstance: {fileID: 0}
  m_PrefabAsset: {fileID: 0}
  m_GameObject: {fileID: 3130375262995734323}
  m_Enabled: 1
  m_CellSize: {x: 1, y: 1, z: 0}
  m_CellGap: {x: 0, y: 0, z: 0}
  m_CellLayout: 0
  m_CellSwizzle: 0
--- !u!1 &3387314249910103535
GameObject:
  m_ObjectHideFlags: 0
  m_CorrespondingSourceObject: {fileID: 0}
  m_PrefabInstance: {fileID: 0}
  m_PrefabAsset: {fileID: 0}
  serializedVersion: 6
  m_Component:
  - component: {fileID: 7395369864353422864}
  - component: {fileID: 3248376127776661880}
  - component: {fileID: 4880514255643876642}
  m_Layer: 31
  m_Name: Layer1
  m_TagString: Untagged
  m_Icon: {fileID: 0}
  m_NavMeshLayer: 0
  m_StaticEditorFlags: 0
  m_IsActive: 1
--- !u!4 &7395369864353422864
Transform:
  m_ObjectHideFlags: 0
  m_CorrespondingSourceObject: {fileID: 0}
  m_PrefabInstance: {fileID: 0}
  m_PrefabAsset: {fileID: 0}
  m_GameObject: {fileID: 3387314249910103535}
  m_LocalRotation: {x: -0, y: -0, z: -0, w: 1}
  m_LocalPosition: {x: 0, y: 0, z: 0}
  m_LocalScale: {x: 1, y: 1, z: 1}
  m_Children: []
  m_Father: {fileID: 4766620483011762029}
  m_RootOrder: 0
  m_LocalEulerAnglesHint: {x: 0, y: 0, z: 0}
--- !u!1839735485 &3248376127776661880
Tilemap:
  m_ObjectHideFlags: 0
  m_CorrespondingSourceObject: {fileID: 0}
  m_PrefabInstance: {fileID: 0}
  m_PrefabAsset: {fileID: 0}
  m_GameObject: {fileID: 3387314249910103535}
  m_Enabled: 1
  m_Tiles:
  - first: {x: -2, y: -5, z: 0}
    second:
      serializedVersion: 2
      m_TileIndex: 52
      m_TileSpriteIndex: 52
      m_TileMatrixIndex: 0
      m_TileColorIndex: 0
      m_TileObjectToInstantiateIndex: 65535
      m_AllTileFlags: 1073741825
  - first: {x: -1, y: -5, z: 0}
    second:
      serializedVersion: 2
      m_TileIndex: 53
      m_TileSpriteIndex: 53
      m_TileMatrixIndex: 0
      m_TileColorIndex: 0
      m_TileObjectToInstantiateIndex: 65535
      m_AllTileFlags: 1073741825
  - first: {x: 0, y: -5, z: 0}
    second:
      serializedVersion: 2
      m_TileIndex: 54
      m_TileSpriteIndex: 54
      m_TileMatrixIndex: 0
      m_TileColorIndex: 0
      m_TileObjectToInstantiateIndex: 65535
      m_AllTileFlags: 1073741825
  - first: {x: 2, y: -5, z: 0}
    second:
      serializedVersion: 2
      m_TileIndex: 55
      m_TileSpriteIndex: 55
      m_TileMatrixIndex: 0
      m_TileColorIndex: 0
      m_TileObjectToInstantiateIndex: 65535
      m_AllTileFlags: 1073741825
  - first: {x: 3, y: -5, z: 0}
    second:
      serializedVersion: 2
      m_TileIndex: 56
      m_TileSpriteIndex: 56
      m_TileMatrixIndex: 0
      m_TileColorIndex: 0
      m_TileObjectToInstantiateIndex: 65535
      m_AllTileFlags: 1073741825
  - first: {x: 4, y: -5, z: 0}
    second:
      serializedVersion: 2
      m_TileIndex: 57
      m_TileSpriteIndex: 57
      m_TileMatrixIndex: 0
      m_TileColorIndex: 0
      m_TileObjectToInstantiateIndex: 65535
      m_AllTileFlags: 1073741825
  - first: {x: 5, y: -5, z: 0}
    second:
      serializedVersion: 2
      m_TileIndex: 58
      m_TileSpriteIndex: 58
      m_TileMatrixIndex: 0
      m_TileColorIndex: 0
      m_TileObjectToInstantiateIndex: 65535
      m_AllTileFlags: 1073741825
  - first: {x: 6, y: -5, z: 0}
    second:
      serializedVersion: 2
      m_TileIndex: 59
      m_TileSpriteIndex: 59
      m_TileMatrixIndex: 0
      m_TileColorIndex: 0
      m_TileObjectToInstantiateIndex: 65535
      m_AllTileFlags: 1073741825
  - first: {x: 7, y: -5, z: 0}
    second:
      serializedVersion: 2
      m_TileIndex: 60
      m_TileSpriteIndex: 60
      m_TileMatrixIndex: 0
      m_TileColorIndex: 0
      m_TileObjectToInstantiateIndex: 65535
      m_AllTileFlags: 1073741825
  - first: {x: 9, y: -5, z: 0}
    second:
      serializedVersion: 2
      m_TileIndex: 61
      m_TileSpriteIndex: 61
      m_TileMatrixIndex: 0
      m_TileColorIndex: 0
      m_TileObjectToInstantiateIndex: 65535
      m_AllTileFlags: 1073741825
  - first: {x: 10, y: -5, z: 0}
    second:
      serializedVersion: 2
      m_TileIndex: 62
      m_TileSpriteIndex: 62
      m_TileMatrixIndex: 0
      m_TileColorIndex: 0
      m_TileObjectToInstantiateIndex: 65535
      m_AllTileFlags: 1073741825
  - first: {x: 11, y: -5, z: 0}
    second:
      serializedVersion: 2
      m_TileIndex: 63
      m_TileSpriteIndex: 63
      m_TileMatrixIndex: 0
      m_TileColorIndex: 0
      m_TileObjectToInstantiateIndex: 65535
      m_AllTileFlags: 1073741825
  - first: {x: -2, y: -4, z: 0}
    second:
      serializedVersion: 2
      m_TileIndex: 44
      m_TileSpriteIndex: 44
      m_TileMatrixIndex: 0
      m_TileColorIndex: 0
      m_TileObjectToInstantiateIndex: 65535
      m_AllTileFlags: 1073741825
  - first: {x: 0, y: -4, z: 0}
    second:
      serializedVersion: 2
      m_TileIndex: 45
      m_TileSpriteIndex: 45
      m_TileMatrixIndex: 0
      m_TileColorIndex: 0
      m_TileObjectToInstantiateIndex: 65535
      m_AllTileFlags: 1073741825
  - first: {x: 2, y: -4, z: 0}
    second:
      serializedVersion: 2
      m_TileIndex: 46
      m_TileSpriteIndex: 46
      m_TileMatrixIndex: 0
      m_TileColorIndex: 0
      m_TileObjectToInstantiateIndex: 65535
      m_AllTileFlags: 1073741825
  - first: {x: 4, y: -4, z: 0}
    second:
      serializedVersion: 2
      m_TileIndex: 47
      m_TileSpriteIndex: 47
      m_TileMatrixIndex: 0
      m_TileColorIndex: 0
      m_TileObjectToInstantiateIndex: 65535
      m_AllTileFlags: 1073741825
  - first: {x: 5, y: -4, z: 0}
    second:
      serializedVersion: 2
      m_TileIndex: 48
      m_TileSpriteIndex: 48
      m_TileMatrixIndex: 0
      m_TileColorIndex: 0
      m_TileObjectToInstantiateIndex: 65535
      m_AllTileFlags: 1073741825
  - first: {x: 7, y: -4, z: 0}
    second:
      serializedVersion: 2
      m_TileIndex: 49
      m_TileSpriteIndex: 49
      m_TileMatrixIndex: 0
      m_TileColorIndex: 0
      m_TileObjectToInstantiateIndex: 65535
      m_AllTileFlags: 1073741825
  - first: {x: 9, y: -4, z: 0}
    second:
      serializedVersion: 2
      m_TileIndex: 50
      m_TileSpriteIndex: 50
      m_TileMatrixIndex: 0
      m_TileColorIndex: 0
      m_TileObjectToInstantiateIndex: 65535
      m_AllTileFlags: 1073741825
  - first: {x: 11, y: -4, z: 0}
    second:
      serializedVersion: 2
      m_TileIndex: 51
      m_TileSpriteIndex: 51
      m_TileMatrixIndex: 0
      m_TileColorIndex: 0
      m_TileObjectToInstantiateIndex: 65535
      m_AllTileFlags: 1073741825
  - first: {x: -2, y: -3, z: 0}
    second:
      serializedVersion: 2
      m_TileIndex: 32
      m_TileSpriteIndex: 32
      m_TileMatrixIndex: 0
      m_TileColorIndex: 0
      m_TileObjectToInstantiateIndex: 65535
      m_AllTileFlags: 1073741825
  - first: {x: -1, y: -3, z: 0}
    second:
      serializedVersion: 2
      m_TileIndex: 33
      m_TileSpriteIndex: 33
      m_TileMatrixIndex: 0
      m_TileColorIndex: 0
      m_TileObjectToInstantiateIndex: 65535
      m_AllTileFlags: 1073741825
  - first: {x: 0, y: -3, z: 0}
    second:
      serializedVersion: 2
      m_TileIndex: 34
      m_TileSpriteIndex: 34
      m_TileMatrixIndex: 0
      m_TileColorIndex: 0
      m_TileObjectToInstantiateIndex: 65535
      m_AllTileFlags: 1073741825
  - first: {x: 2, y: -3, z: 0}
    second:
      serializedVersion: 2
      m_TileIndex: 35
      m_TileSpriteIndex: 35
      m_TileMatrixIndex: 0
      m_TileColorIndex: 0
      m_TileObjectToInstantiateIndex: 65535
      m_AllTileFlags: 1073741825
  - first: {x: 3, y: -3, z: 0}
    second:
      serializedVersion: 2
      m_TileIndex: 36
      m_TileSpriteIndex: 36
      m_TileMatrixIndex: 0
      m_TileColorIndex: 0
      m_TileObjectToInstantiateIndex: 65535
      m_AllTileFlags: 1073741825
  - first: {x: 4, y: -3, z: 0}
    second:
      serializedVersion: 2
      m_TileIndex: 37
      m_TileSpriteIndex: 37
      m_TileMatrixIndex: 0
      m_TileColorIndex: 0
      m_TileObjectToInstantiateIndex: 65535
      m_AllTileFlags: 1073741825
  - first: {x: 5, y: -3, z: 0}
    second:
      serializedVersion: 2
      m_TileIndex: 38
      m_TileSpriteIndex: 38
      m_TileMatrixIndex: 0
      m_TileColorIndex: 0
      m_TileObjectToInstantiateIndex: 65535
      m_AllTileFlags: 1073741825
  - first: {x: 6, y: -3, z: 0}
    second:
      serializedVersion: 2
      m_TileIndex: 39
      m_TileSpriteIndex: 39
      m_TileMatrixIndex: 0
      m_TileColorIndex: 0
      m_TileObjectToInstantiateIndex: 65535
      m_AllTileFlags: 1073741825
  - first: {x: 7, y: -3, z: 0}
    second:
      serializedVersion: 2
      m_TileIndex: 40
      m_TileSpriteIndex: 40
      m_TileMatrixIndex: 0
      m_TileColorIndex: 0
      m_TileObjectToInstantiateIndex: 65535
      m_AllTileFlags: 1073741825
  - first: {x: 9, y: -3, z: 0}
    second:
      serializedVersion: 2
      m_TileIndex: 41
      m_TileSpriteIndex: 41
      m_TileMatrixIndex: 0
      m_TileColorIndex: 0
      m_TileObjectToInstantiateIndex: 65535
      m_AllTileFlags: 1073741825
  - first: {x: 10, y: -3, z: 0}
    second:
      serializedVersion: 2
      m_TileIndex: 42
      m_TileSpriteIndex: 42
      m_TileMatrixIndex: 0
      m_TileColorIndex: 0
      m_TileObjectToInstantiateIndex: 65535
      m_AllTileFlags: 1073741825
  - first: {x: 11, y: -3, z: 0}
    second:
      serializedVersion: 2
      m_TileIndex: 43
      m_TileSpriteIndex: 43
      m_TileMatrixIndex: 0
      m_TileColorIndex: 0
      m_TileObjectToInstantiateIndex: 65535
      m_AllTileFlags: 1073741825
  - first: {x: -2, y: -1, z: 0}
    second:
      serializedVersion: 2
      m_TileIndex: 20
      m_TileSpriteIndex: 20
      m_TileMatrixIndex: 0
      m_TileColorIndex: 0
      m_TileObjectToInstantiateIndex: 65535
      m_AllTileFlags: 1073741825
  - first: {x: -1, y: -1, z: 0}
    second:
      serializedVersion: 2
      m_TileIndex: 21
      m_TileSpriteIndex: 21
      m_TileMatrixIndex: 0
      m_TileColorIndex: 0
      m_TileObjectToInstantiateIndex: 65535
      m_AllTileFlags: 1073741825
  - first: {x: 0, y: -1, z: 0}
    second:
      serializedVersion: 2
      m_TileIndex: 22
      m_TileSpriteIndex: 22
      m_TileMatrixIndex: 0
      m_TileColorIndex: 0
      m_TileObjectToInstantiateIndex: 65535
      m_AllTileFlags: 1073741825
  - first: {x: 2, y: -1, z: 0}
    second:
      serializedVersion: 2
      m_TileIndex: 23
      m_TileSpriteIndex: 23
      m_TileMatrixIndex: 0
      m_TileColorIndex: 0
      m_TileObjectToInstantiateIndex: 65535
      m_AllTileFlags: 1073741825
  - first: {x: 3, y: -1, z: 0}
    second:
      serializedVersion: 2
      m_TileIndex: 24
      m_TileSpriteIndex: 24
      m_TileMatrixIndex: 0
      m_TileColorIndex: 0
      m_TileObjectToInstantiateIndex: 65535
      m_AllTileFlags: 1073741825
  - first: {x: 4, y: -1, z: 0}
    second:
      serializedVersion: 2
      m_TileIndex: 25
      m_TileSpriteIndex: 25
      m_TileMatrixIndex: 0
      m_TileColorIndex: 0
      m_TileObjectToInstantiateIndex: 65535
      m_AllTileFlags: 1073741825
  - first: {x: 5, y: -1, z: 0}
    second:
      serializedVersion: 2
      m_TileIndex: 26
      m_TileSpriteIndex: 26
      m_TileMatrixIndex: 0
      m_TileColorIndex: 0
      m_TileObjectToInstantiateIndex: 65535
      m_AllTileFlags: 1073741825
  - first: {x: 6, y: -1, z: 0}
    second:
      serializedVersion: 2
      m_TileIndex: 27
      m_TileSpriteIndex: 27
      m_TileMatrixIndex: 0
      m_TileColorIndex: 0
      m_TileObjectToInstantiateIndex: 65535
      m_AllTileFlags: 1073741825
  - first: {x: 7, y: -1, z: 0}
    second:
      serializedVersion: 2
      m_TileIndex: 28
      m_TileSpriteIndex: 28
      m_TileMatrixIndex: 0
      m_TileColorIndex: 0
      m_TileObjectToInstantiateIndex: 65535
      m_AllTileFlags: 1073741825
  - first: {x: 9, y: -1, z: 0}
    second:
      serializedVersion: 2
      m_TileIndex: 29
      m_TileSpriteIndex: 29
      m_TileMatrixIndex: 0
      m_TileColorIndex: 0
      m_TileObjectToInstantiateIndex: 65535
      m_AllTileFlags: 1073741825
  - first: {x: 10, y: -1, z: 0}
    second:
      serializedVersion: 2
      m_TileIndex: 30
      m_TileSpriteIndex: 30
      m_TileMatrixIndex: 0
      m_TileColorIndex: 0
      m_TileObjectToInstantiateIndex: 65535
      m_AllTileFlags: 1073741825
  - first: {x: 11, y: -1, z: 0}
    second:
      serializedVersion: 2
      m_TileIndex: 31
      m_TileSpriteIndex: 31
      m_TileMatrixIndex: 0
      m_TileColorIndex: 0
      m_TileObjectToInstantiateIndex: 65535
      m_AllTileFlags: 1073741825
  - first: {x: -2, y: 0, z: 0}
    second:
      serializedVersion: 2
      m_TileIndex: 12
      m_TileSpriteIndex: 12
      m_TileMatrixIndex: 0
      m_TileColorIndex: 0
      m_TileObjectToInstantiateIndex: 65535
      m_AllTileFlags: 1073741825
  - first: {x: 0, y: 0, z: 0}
    second:
      serializedVersion: 2
      m_TileIndex: 13
      m_TileSpriteIndex: 13
      m_TileMatrixIndex: 0
      m_TileColorIndex: 0
      m_TileObjectToInstantiateIndex: 65535
      m_AllTileFlags: 1073741825
  - first: {x: 2, y: 0, z: 0}
    second:
      serializedVersion: 2
      m_TileIndex: 14
      m_TileSpriteIndex: 14
      m_TileMatrixIndex: 0
      m_TileColorIndex: 0
      m_TileObjectToInstantiateIndex: 65535
      m_AllTileFlags: 1073741825
  - first: {x: 4, y: 0, z: 0}
    second:
      serializedVersion: 2
      m_TileIndex: 15
      m_TileSpriteIndex: 15
      m_TileMatrixIndex: 0
      m_TileColorIndex: 0
      m_TileObjectToInstantiateIndex: 65535
      m_AllTileFlags: 1073741825
  - first: {x: 5, y: 0, z: 0}
    second:
      serializedVersion: 2
      m_TileIndex: 16
      m_TileSpriteIndex: 16
      m_TileMatrixIndex: 0
      m_TileColorIndex: 0
      m_TileObjectToInstantiateIndex: 65535
      m_AllTileFlags: 1073741825
  - first: {x: 7, y: 0, z: 0}
    second:
      serializedVersion: 2
      m_TileIndex: 17
      m_TileSpriteIndex: 17
      m_TileMatrixIndex: 0
      m_TileColorIndex: 0
      m_TileObjectToInstantiateIndex: 65535
      m_AllTileFlags: 1073741825
  - first: {x: 9, y: 0, z: 0}
    second:
      serializedVersion: 2
      m_TileIndex: 18
      m_TileSpriteIndex: 18
      m_TileMatrixIndex: 0
      m_TileColorIndex: 0
      m_TileObjectToInstantiateIndex: 65535
      m_AllTileFlags: 1073741825
  - first: {x: 11, y: 0, z: 0}
    second:
      serializedVersion: 2
      m_TileIndex: 19
      m_TileSpriteIndex: 19
      m_TileMatrixIndex: 0
      m_TileColorIndex: 0
      m_TileObjectToInstantiateIndex: 65535
      m_AllTileFlags: 1073741825
  - first: {x: -2, y: 1, z: 0}
    second:
      serializedVersion: 2
      m_TileIndex: 0
      m_TileSpriteIndex: 0
      m_TileMatrixIndex: 0
      m_TileColorIndex: 0
      m_TileObjectToInstantiateIndex: 65535
      m_AllTileFlags: 1073741825
  - first: {x: -1, y: 1, z: 0}
    second:
      serializedVersion: 2
      m_TileIndex: 1
      m_TileSpriteIndex: 1
      m_TileMatrixIndex: 0
      m_TileColorIndex: 0
      m_TileObjectToInstantiateIndex: 65535
      m_AllTileFlags: 1073741825
  - first: {x: 0, y: 1, z: 0}
    second:
      serializedVersion: 2
      m_TileIndex: 2
      m_TileSpriteIndex: 2
      m_TileMatrixIndex: 0
      m_TileColorIndex: 0
      m_TileObjectToInstantiateIndex: 65535
      m_AllTileFlags: 1073741825
  - first: {x: 2, y: 1, z: 0}
    second:
      serializedVersion: 2
      m_TileIndex: 3
      m_TileSpriteIndex: 3
      m_TileMatrixIndex: 0
      m_TileColorIndex: 0
      m_TileObjectToInstantiateIndex: 65535
      m_AllTileFlags: 1073741825
  - first: {x: 3, y: 1, z: 0}
    second:
      serializedVersion: 2
      m_TileIndex: 4
      m_TileSpriteIndex: 4
      m_TileMatrixIndex: 0
      m_TileColorIndex: 0
      m_TileObjectToInstantiateIndex: 65535
      m_AllTileFlags: 1073741825
  - first: {x: 4, y: 1, z: 0}
    second:
      serializedVersion: 2
      m_TileIndex: 5
      m_TileSpriteIndex: 5
      m_TileMatrixIndex: 0
      m_TileColorIndex: 0
      m_TileObjectToInstantiateIndex: 65535
      m_AllTileFlags: 1073741825
  - first: {x: 5, y: 1, z: 0}
    second:
      serializedVersion: 2
      m_TileIndex: 6
      m_TileSpriteIndex: 6
      m_TileMatrixIndex: 0
      m_TileColorIndex: 0
      m_TileObjectToInstantiateIndex: 65535
      m_AllTileFlags: 1073741825
  - first: {x: 6, y: 1, z: 0}
    second:
      serializedVersion: 2
      m_TileIndex: 7
      m_TileSpriteIndex: 7
      m_TileMatrixIndex: 0
      m_TileColorIndex: 0
      m_TileObjectToInstantiateIndex: 65535
      m_AllTileFlags: 1073741825
  - first: {x: 7, y: 1, z: 0}
    second:
      serializedVersion: 2
      m_TileIndex: 8
      m_TileSpriteIndex: 8
      m_TileMatrixIndex: 0
      m_TileColorIndex: 0
      m_TileObjectToInstantiateIndex: 65535
      m_AllTileFlags: 1073741825
  - first: {x: 9, y: 1, z: 0}
    second:
      serializedVersion: 2
      m_TileIndex: 9
      m_TileSpriteIndex: 9
      m_TileMatrixIndex: 0
      m_TileColorIndex: 0
      m_TileObjectToInstantiateIndex: 65535
      m_AllTileFlags: 1073741825
  - first: {x: 10, y: 1, z: 0}
    second:
      serializedVersion: 2
      m_TileIndex: 10
      m_TileSpriteIndex: 10
      m_TileMatrixIndex: 0
      m_TileColorIndex: 0
      m_TileObjectToInstantiateIndex: 65535
      m_AllTileFlags: 1073741825
  - first: {x: 11, y: 1, z: 0}
    second:
      serializedVersion: 2
      m_TileIndex: 11
      m_TileSpriteIndex: 11
      m_TileMatrixIndex: 0
      m_TileColorIndex: 0
      m_TileObjectToInstantiateIndex: 65535
      m_AllTileFlags: 1073741825
  m_AnimatedTiles: {}
  m_TileAssetArray:
  - m_RefCount: 1
    m_Data: {fileID: 11400000, guid: f721729e7c0c72c4597ce5131176baf8, type: 2}
  - m_RefCount: 1
    m_Data: {fileID: 11400000, guid: 164c1cf25118e034c90258f58b65cabe, type: 2}
  - m_RefCount: 1
    m_Data: {fileID: 11400000, guid: 1897bf4b758fcb744af574e02e5265dd, type: 2}
  - m_RefCount: 1
    m_Data: {fileID: 11400000, guid: 8651d85f086a3884e8f3114075d5e409, type: 2}
  - m_RefCount: 1
    m_Data: {fileID: 11400000, guid: 56651535249a3aa478042f270d9866fe, type: 2}
  - m_RefCount: 1
    m_Data: {fileID: 11400000, guid: e89c3cf7642b3714296e45ef6adac846, type: 2}
  - m_RefCount: 1
    m_Data: {fileID: 11400000, guid: d1be03c7867116648b27adef3d5ef041, type: 2}
  - m_RefCount: 1
    m_Data: {fileID: 11400000, guid: 8f7d8260c4ff87645835deb2591b620d, type: 2}
  - m_RefCount: 1
    m_Data: {fileID: 11400000, guid: f889584b8d7dbd743b40be7066b11d65, type: 2}
  - m_RefCount: 1
    m_Data: {fileID: 11400000, guid: 5c3fd0b74754fb14d8eab7a400efadf1, type: 2}
  - m_RefCount: 1
    m_Data: {fileID: 11400000, guid: 5bd86f7e9940fdf43bae2ee33f56da19, type: 2}
  - m_RefCount: 1
    m_Data: {fileID: 11400000, guid: 43d76f517f22fd64aa7a18131d172c00, type: 2}
  - m_RefCount: 1
    m_Data: {fileID: 11400000, guid: d12aa6e660890c04495fa2801375693e, type: 2}
  - m_RefCount: 1
    m_Data: {fileID: 11400000, guid: b28f7e97e5c9692449e05d4ddbfc4e24, type: 2}
  - m_RefCount: 1
    m_Data: {fileID: 11400000, guid: 21911dcfd524dbe4a8f7ada4b77c0120, type: 2}
  - m_RefCount: 1
    m_Data: {fileID: 11400000, guid: 4453ff46bf625004294b905a55d4355b, type: 2}
  - m_RefCount: 1
    m_Data: {fileID: 11400000, guid: b11a15797e965b647969cdf92f309df4, type: 2}
  - m_RefCount: 1
    m_Data: {fileID: 11400000, guid: 09d46bd3351839046904ab291853d4e9, type: 2}
  - m_RefCount: 1
    m_Data: {fileID: 11400000, guid: 4213166ff7234ee408aae6852d0ec4ec, type: 2}
  - m_RefCount: 1
    m_Data: {fileID: 11400000, guid: bcac12ab7e2588f4186ff68c7617498d, type: 2}
  - m_RefCount: 1
    m_Data: {fileID: 11400000, guid: 21f364792f6cac64c92497e3d157a40c, type: 2}
  - m_RefCount: 1
    m_Data: {fileID: 11400000, guid: eb36983c759bae24a984c752631b4782, type: 2}
  - m_RefCount: 1
    m_Data: {fileID: 11400000, guid: 9156510b8dac49a4090e1dd4b35903cb, type: 2}
  - m_RefCount: 1
    m_Data: {fileID: 11400000, guid: e37fe0add87559f499e81821974e1c78, type: 2}
  - m_RefCount: 1
    m_Data: {fileID: 11400000, guid: 5dd158eeb9aa25f48a5fca695252e3c0, type: 2}
  - m_RefCount: 1
    m_Data: {fileID: 11400000, guid: 049a6be50289dea4396df3b09abba3cc, type: 2}
  - m_RefCount: 1
    m_Data: {fileID: 11400000, guid: 1125501b78fb1e7459bd7ff03ea234e7, type: 2}
  - m_RefCount: 1
    m_Data: {fileID: 11400000, guid: 49207e506142cd44ea185044833d24a9, type: 2}
  - m_RefCount: 1
    m_Data: {fileID: 11400000, guid: cbb062b35b914274cae5e48f2f7d6af1, type: 2}
  - m_RefCount: 1
    m_Data: {fileID: 11400000, guid: 55e6cdb49adfc314c9d4d6dfeee2288e, type: 2}
  - m_RefCount: 1
    m_Data: {fileID: 11400000, guid: 4216323f5882670419b008754047bb64, type: 2}
  - m_RefCount: 1
    m_Data: {fileID: 11400000, guid: 193556d84da31ea4caf5e619e9d79f90, type: 2}
  - m_RefCount: 1
    m_Data: {fileID: 11400000, guid: 1c7e4b2da4caf74469540ae722573691, type: 2}
  - m_RefCount: 1
    m_Data: {fileID: 11400000, guid: ca1e58103eb1c104d88547dcb22167ab, type: 2}
  - m_RefCount: 1
    m_Data: {fileID: 11400000, guid: a6c1b7acf0ad49841803258c8cf60568, type: 2}
  - m_RefCount: 1
    m_Data: {fileID: 11400000, guid: e8b2101026b9cd547ae20bd714280db3, type: 2}
  - m_RefCount: 1
    m_Data: {fileID: 11400000, guid: a3fdcacb4045d114291d6901160088d4, type: 2}
  - m_RefCount: 1
    m_Data: {fileID: 11400000, guid: 439d76fb55e827e448ddcb0e622de78f, type: 2}
  - m_RefCount: 1
    m_Data: {fileID: 11400000, guid: 4749d4b15d7d22049aacc6c6520e7323, type: 2}
  - m_RefCount: 1
    m_Data: {fileID: 11400000, guid: 0d67f87e20ee4f14cac45785ddee4323, type: 2}
  - m_RefCount: 1
    m_Data: {fileID: 11400000, guid: c0377b6a1fd221b4e83e740c080e0f2d, type: 2}
  - m_RefCount: 1
    m_Data: {fileID: 11400000, guid: d279ea590ff5c5f49b77b9e0eaa25497, type: 2}
  - m_RefCount: 1
    m_Data: {fileID: 11400000, guid: 9218801d343459946807ae0bfd7dbc4d, type: 2}
  - m_RefCount: 1
    m_Data: {fileID: 11400000, guid: e84aef4560cda694f8030887bff82553, type: 2}
  - m_RefCount: 1
    m_Data: {fileID: 11400000, guid: b5ed824726a79b346a3a07575aa2d604, type: 2}
  - m_RefCount: 1
    m_Data: {fileID: 11400000, guid: cc938130f0e1779469c6219610546b68, type: 2}
  - m_RefCount: 1
    m_Data: {fileID: 11400000, guid: 0b36ff687feb5ad4c999e53c8ccd86ed, type: 2}
  - m_RefCount: 1
    m_Data: {fileID: 11400000, guid: ec312c434f69c2e4289b77c0515c1942, type: 2}
  - m_RefCount: 1
    m_Data: {fileID: 11400000, guid: 4bbaf4cc935932a40854cd6bd2b52ebd, type: 2}
  - m_RefCount: 1
    m_Data: {fileID: 11400000, guid: e7df611cfce96eb428d10c5a86b58e82, type: 2}
  - m_RefCount: 1
    m_Data: {fileID: 11400000, guid: e96d622fd9fb8ce4dbda6d8de519eff5, type: 2}
  - m_RefCount: 1
    m_Data: {fileID: 11400000, guid: 4fcde51dca8357447b721559195269f0, type: 2}
  - m_RefCount: 1
    m_Data: {fileID: 11400000, guid: b5db50f3dfa4ce74bae917cc67c049d6, type: 2}
  - m_RefCount: 1
    m_Data: {fileID: 11400000, guid: 1a118b78db19faf4dbcbd79c3d20e652, type: 2}
  - m_RefCount: 1
    m_Data: {fileID: 11400000, guid: 3130f0049a309ff4c97cb0ed018e2b77, type: 2}
  - m_RefCount: 1
    m_Data: {fileID: 11400000, guid: 23acdc2b31412e447bec5b65dc902961, type: 2}
  - m_RefCount: 1
    m_Data: {fileID: 11400000, guid: ddf2a707cfdcecc4abfef289f18d8b44, type: 2}
  - m_RefCount: 1
    m_Data: {fileID: 11400000, guid: acada60cb380bff4a9f3b13014f4ac00, type: 2}
  - m_RefCount: 1
    m_Data: {fileID: 11400000, guid: 96da3c5371ff7c2479785878f625be84, type: 2}
  - m_RefCount: 1
    m_Data: {fileID: 11400000, guid: 3ceb0766ee4b9054cb86c826d21d50cf, type: 2}
  - m_RefCount: 1
    m_Data: {fileID: 11400000, guid: 5af5a1ca70b2bf04ab93ed6715bcc8ad, type: 2}
  - m_RefCount: 1
    m_Data: {fileID: 11400000, guid: b78dc5754f1e51c40a9126f8fe0bbeb9, type: 2}
  - m_RefCount: 1
    m_Data: {fileID: 11400000, guid: 18732054b46b1224bb336686a0688211, type: 2}
  - m_RefCount: 1
    m_Data: {fileID: 11400000, guid: 31377082312dc2d4eaf8773a057eb447, type: 2}
  m_TileSpriteArray:
  - m_RefCount: 1
    m_Data: {fileID: -5397573168801136404, guid: e7485cb3a16e8674d969f211acc34a37,
      type: 3}
  - m_RefCount: 1
    m_Data: {fileID: 2311940087313822035, guid: e7485cb3a16e8674d969f211acc34a37,
      type: 3}
  - m_RefCount: 1
    m_Data: {fileID: 1177882447611923154, guid: e7485cb3a16e8674d969f211acc34a37,
      type: 3}
  - m_RefCount: 1
    m_Data: {fileID: -835300670519728832, guid: e7485cb3a16e8674d969f211acc34a37,
      type: 3}
  - m_RefCount: 1
    m_Data: {fileID: 8054514196659142189, guid: e7485cb3a16e8674d969f211acc34a37,
      type: 3}
  - m_RefCount: 1
    m_Data: {fileID: -7746973121676557249, guid: e7485cb3a16e8674d969f211acc34a37,
      type: 3}
  - m_RefCount: 1
    m_Data: {fileID: 9203586485821557984, guid: e7485cb3a16e8674d969f211acc34a37,
      type: 3}
  - m_RefCount: 1
    m_Data: {fileID: 1113114319143636006, guid: e7485cb3a16e8674d969f211acc34a37,
      type: 3}
  - m_RefCount: 1
    m_Data: {fileID: 4309086698426710061, guid: e7485cb3a16e8674d969f211acc34a37,
      type: 3}
  - m_RefCount: 1
    m_Data: {fileID: -4949906954940877785, guid: e7485cb3a16e8674d969f211acc34a37,
      type: 3}
  - m_RefCount: 1
    m_Data: {fileID: -3905034432879570366, guid: e7485cb3a16e8674d969f211acc34a37,
      type: 3}
  - m_RefCount: 1
    m_Data: {fileID: 3649673460643959365, guid: e7485cb3a16e8674d969f211acc34a37,
      type: 3}
  - m_RefCount: 1
    m_Data: {fileID: 6335363358962595867, guid: e7485cb3a16e8674d969f211acc34a37,
      type: 3}
  - m_RefCount: 1
    m_Data: {fileID: -5885294586691327330, guid: e7485cb3a16e8674d969f211acc34a37,
      type: 3}
  - m_RefCount: 1
    m_Data: {fileID: 5572714936077664141, guid: e7485cb3a16e8674d969f211acc34a37,
      type: 3}
  - m_RefCount: 1
    m_Data: {fileID: -4406291593386333214, guid: e7485cb3a16e8674d969f211acc34a37,
      type: 3}
  - m_RefCount: 1
    m_Data: {fileID: 222953487920146110, guid: e7485cb3a16e8674d969f211acc34a37, type: 3}
  - m_RefCount: 1
    m_Data: {fileID: -9099638006240834696, guid: e7485cb3a16e8674d969f211acc34a37,
      type: 3}
  - m_RefCount: 1
    m_Data: {fileID: -8359641654693745293, guid: e7485cb3a16e8674d969f211acc34a37,
      type: 3}
  - m_RefCount: 1
    m_Data: {fileID: -3913537753609568731, guid: e7485cb3a16e8674d969f211acc34a37,
      type: 3}
  - m_RefCount: 1
    m_Data: {fileID: 4001825659954716020, guid: e7485cb3a16e8674d969f211acc34a37,
      type: 3}
  - m_RefCount: 1
    m_Data: {fileID: -2335304752134567092, guid: e7485cb3a16e8674d969f211acc34a37,
      type: 3}
  - m_RefCount: 1
    m_Data: {fileID: -3141622814337994059, guid: e7485cb3a16e8674d969f211acc34a37,
      type: 3}
  - m_RefCount: 1
    m_Data: {fileID: 6227152223826562353, guid: e7485cb3a16e8674d969f211acc34a37,
      type: 3}
  - m_RefCount: 1
    m_Data: {fileID: -2538544556672236374, guid: e7485cb3a16e8674d969f211acc34a37,
      type: 3}
  - m_RefCount: 1
    m_Data: {fileID: 4277341024300116560, guid: e7485cb3a16e8674d969f211acc34a37,
      type: 3}
  - m_RefCount: 1
    m_Data: {fileID: -8382316193439915484, guid: e7485cb3a16e8674d969f211acc34a37,
      type: 3}
  - m_RefCount: 1
    m_Data: {fileID: 758179073365520342, guid: e7485cb3a16e8674d969f211acc34a37, type: 3}
  - m_RefCount: 1
    m_Data: {fileID: 1798394917263985721, guid: e7485cb3a16e8674d969f211acc34a37,
      type: 3}
  - m_RefCount: 1
    m_Data: {fileID: 4681956313157614292, guid: e7485cb3a16e8674d969f211acc34a37,
      type: 3}
  - m_RefCount: 1
    m_Data: {fileID: -7646462866965954745, guid: e7485cb3a16e8674d969f211acc34a37,
      type: 3}
  - m_RefCount: 1
    m_Data: {fileID: 4833621425626359182, guid: e7485cb3a16e8674d969f211acc34a37,
      type: 3}
  - m_RefCount: 1
    m_Data: {fileID: -3620330725250788555, guid: e7485cb3a16e8674d969f211acc34a37,
      type: 3}
  - m_RefCount: 1
    m_Data: {fileID: 1959558079204398148, guid: e7485cb3a16e8674d969f211acc34a37,
      type: 3}
  - m_RefCount: 1
    m_Data: {fileID: -6065804080865213325, guid: e7485cb3a16e8674d969f211acc34a37,
      type: 3}
  - m_RefCount: 1
    m_Data: {fileID: -8423600478415941230, guid: e7485cb3a16e8674d969f211acc34a37,
      type: 3}
  - m_RefCount: 1
    m_Data: {fileID: -538583037402497838, guid: e7485cb3a16e8674d969f211acc34a37,
      type: 3}
  - m_RefCount: 1
    m_Data: {fileID: 5810005871121677710, guid: e7485cb3a16e8674d969f211acc34a37,
      type: 3}
  - m_RefCount: 1
    m_Data: {fileID: 100169817545780029, guid: e7485cb3a16e8674d969f211acc34a37, type: 3}
  - m_RefCount: 1
    m_Data: {fileID: -8241926706777548882, guid: e7485cb3a16e8674d969f211acc34a37,
      type: 3}
  - m_RefCount: 1
    m_Data: {fileID: 9103367115129258495, guid: e7485cb3a16e8674d969f211acc34a37,
      type: 3}
  - m_RefCount: 1
    m_Data: {fileID: 2861226629504015205, guid: e7485cb3a16e8674d969f211acc34a37,
      type: 3}
  - m_RefCount: 1
    m_Data: {fileID: 6733347212988919062, guid: e7485cb3a16e8674d969f211acc34a37,
      type: 3}
  - m_RefCount: 1
    m_Data: {fileID: 1586553956688890058, guid: e7485cb3a16e8674d969f211acc34a37,
      type: 3}
  - m_RefCount: 1
    m_Data: {fileID: 688165358032391586, guid: e7485cb3a16e8674d969f211acc34a37, type: 3}
  - m_RefCount: 1
    m_Data: {fileID: 4662508029248094978, guid: e7485cb3a16e8674d969f211acc34a37,
      type: 3}
  - m_RefCount: 1
    m_Data: {fileID: -7672833647603034169, guid: e7485cb3a16e8674d969f211acc34a37,
      type: 3}
  - m_RefCount: 1
    m_Data: {fileID: -6843456136062754734, guid: e7485cb3a16e8674d969f211acc34a37,
      type: 3}
  - m_RefCount: 1
    m_Data: {fileID: 185742730104234399, guid: e7485cb3a16e8674d969f211acc34a37, type: 3}
  - m_RefCount: 1
    m_Data: {fileID: -4159277824943495015, guid: e7485cb3a16e8674d969f211acc34a37,
      type: 3}
  - m_RefCount: 1
    m_Data: {fileID: -2264975826586640993, guid: e7485cb3a16e8674d969f211acc34a37,
      type: 3}
  - m_RefCount: 1
    m_Data: {fileID: -4623196983737631608, guid: e7485cb3a16e8674d969f211acc34a37,
      type: 3}
  - m_RefCount: 1
    m_Data: {fileID: 5177485573817319861, guid: e7485cb3a16e8674d969f211acc34a37,
      type: 3}
  - m_RefCount: 1
    m_Data: {fileID: -827597535765075688, guid: e7485cb3a16e8674d969f211acc34a37,
      type: 3}
  - m_RefCount: 1
    m_Data: {fileID: -7357223333582435901, guid: e7485cb3a16e8674d969f211acc34a37,
      type: 3}
  - m_RefCount: 1
    m_Data: {fileID: -4097808107958202124, guid: e7485cb3a16e8674d969f211acc34a37,
      type: 3}
  - m_RefCount: 1
    m_Data: {fileID: -9065680539733625431, guid: e7485cb3a16e8674d969f211acc34a37,
      type: 3}
  - m_RefCount: 1
    m_Data: {fileID: 2251051983275126712, guid: e7485cb3a16e8674d969f211acc34a37,
      type: 3}
  - m_RefCount: 1
    m_Data: {fileID: -5747214865371273739, guid: e7485cb3a16e8674d969f211acc34a37,
      type: 3}
  - m_RefCount: 1
    m_Data: {fileID: 2959599335534627790, guid: e7485cb3a16e8674d969f211acc34a37,
      type: 3}
  - m_RefCount: 1
    m_Data: {fileID: -2469983648929260773, guid: e7485cb3a16e8674d969f211acc34a37,
      type: 3}
  - m_RefCount: 1
    m_Data: {fileID: 2525656426636184090, guid: e7485cb3a16e8674d969f211acc34a37,
      type: 3}
  - m_RefCount: 1
    m_Data: {fileID: 1639115459137145907, guid: e7485cb3a16e8674d969f211acc34a37,
      type: 3}
  - m_RefCount: 1
    m_Data: {fileID: -5959538443056782958, guid: e7485cb3a16e8674d969f211acc34a37,
      type: 3}
  m_TileMatrixArray:
  - m_RefCount: 64
    m_Data:
      e00: 1
      e01: 0
      e02: 0
      e03: 0
      e10: 0
      e11: 1
      e12: 0
      e13: 0
      e20: 0
      e21: 0
      e22: 1
      e23: 0
      e30: 0
      e31: 0
      e32: 0
      e33: 1
  m_TileColorArray:
  - m_RefCount: 64
    m_Data: {r: 1, g: 1, b: 1, a: 1}
  m_TileObjectToInstantiateArray: []
  m_AnimationFrameRate: 1
  m_Color: {r: 1, g: 1, b: 1, a: 1}
  m_Origin: {x: -2, y: -5, z: 0}
  m_Size: {x: 14, y: 7, z: 1}
  m_TileAnchor: {x: 0.5, y: 0.5, z: 0}
  m_TileOrientation: 0
  m_TileOrientationMatrix:
    e00: 1
    e01: 0
    e02: 0
    e03: 0
    e10: 0
    e11: 1
    e12: 0
    e13: 0
    e20: 0
    e21: 0
    e22: 1
    e23: 0
    e30: 0
    e31: 0
    e32: 0
    e33: 1
--- !u!483693784 &4880514255643876642
TilemapRenderer:
  m_ObjectHideFlags: 0
  m_CorrespondingSourceObject: {fileID: 0}
  m_PrefabInstance: {fileID: 0}
  m_PrefabAsset: {fileID: 0}
  m_GameObject: {fileID: 3387314249910103535}
  m_Enabled: 0
  m_CastShadows: 0
  m_ReceiveShadows: 0
  m_DynamicOccludee: 0
  m_MotionVectors: 1
  m_LightProbeUsage: 0
  m_ReflectionProbeUsage: 0
  m_RayTracingMode: 0
  m_RenderingLayerMask: 1
  m_RendererPriority: 0
  m_Materials:
  - {fileID: 10754, guid: 0000000000000000f000000000000000, type: 0}
  m_StaticBatchInfo:
    firstSubMesh: 0
    subMeshCount: 0
  m_StaticBatchRoot: {fileID: 0}
  m_ProbeAnchor: {fileID: 0}
  m_LightProbeVolumeOverride: {fileID: 0}
  m_ScaleInLightmap: 1
  m_ReceiveGI: 1
  m_PreserveUVs: 0
  m_IgnoreNormalsForChartDetection: 0
  m_ImportantGI: 0
  m_StitchLightmapSeams: 1
  m_SelectedEditorRenderState: 0
  m_MinimumChartSize: 4
  m_AutoUVMaxDistance: 0.5
  m_AutoUVMaxAngle: 89
  m_LightmapParameters: {fileID: 0}
  m_SortingLayerID: 0
  m_SortingLayer: 0
  m_SortingOrder: 0
  m_ChunkSize: {x: 32, y: 32, z: 32}
  m_ChunkCullingBounds: {x: 0, y: 0, z: 0}
  m_MaxChunkCount: 16
  m_MaxFrameAge: 16
  m_SortOrder: 0
  m_Mode: 0
  m_DetectChunkCullingBounds: 0
  m_MaskInteraction: 0
--- !u!114 &-8177286444191106005
MonoBehaviour:
  m_ObjectHideFlags: 0
  m_CorrespondingSourceObject: {fileID: 0}
  m_PrefabInstance: {fileID: 0}
  m_PrefabAsset: {fileID: 0}
  m_GameObject: {fileID: 0}
  m_Enabled: 1
  m_EditorHideFlags: 0
  m_Script: {fileID: 12395, guid: 0000000000000000e000000000000000, type: 0}
  m_Name: Palette Settings
  m_EditorClassIdentifier: 
  cellSizing: 0
